{
    "name": "Robo Nev. (R.Nev)",
    "short_name": "R. Nev",
    "vnum": 1.9,
    "version": "Matsui",
    "description": "A British royal butler in robot form (so essentially C3PO).",
    "ownerID": "101742709093445632",
    "discordGuilds": 40000000,
    "fish_endpoint": "http://nevexohome.ddns.net:3000/api/live?tank=tank_a,tank_b",
    "oauth": "<https://discordapp.com/api/oauth2/authorize?client_id=447135893887647755&permissions=3222592&scope=bot>",
    "source": "https://gitlab.com/nevexo/robonev",
    "credits": [
        {"name": "Hatman", "value": "Added all commands from the 'memes' module - Added some fish commands. Suggested 1.66, 1.67, 1.8 & 1.9 version names, inital code for r.hibp"},
        {"name": "TheEvilPro", "value": "r.yt Command suggestion"},
        {"name": "Ao", "value": "Help with r.xkcd latest", "link": "https://ave.zone"},
        {"name": "qookie", "value": "Suggestion of r.cowsay"},
        {"name": "Troy Hunt", "value": "Creator and maintainer of Have I been Pwned?", "link": "https://troyhunt.com"}
    ]
}
